img,cls
..\database\train\wl_buttrfly\432000.jpg,wl_buttrfly
..\database\train\wl_buttrfly\432001.jpg,wl_buttrfly
..\database\train\wl_buttrfly\432002.jpg,wl_buttrfly
..\database\train\wl_buttrfly\432003.jpg,wl_buttrfly
..\database\train\wl_buttrfly\432004.jpg,wl_buttrfly
..\database\train\wl_buttrfly\432005.jpg,wl_buttrfly
..\database\train\wl_buttrfly\432006.jpg,wl_buttrfly
..\database\train\wl_buttrfly\432007.jpg,wl_buttrfly
..\database\train\wl_buttrfly\432008.jpg,wl_buttrfly
..\database\train\wl_buttrfly\432009.jpg,wl_buttrfly
..\database\train\wl_buttrfly\432010.jpg,wl_buttrfly
..\database\train\wl_buttrfly\432011.jpg,wl_buttrfly
..\database\train\wl_buttrfly\432012.jpg,wl_buttrfly
..\database\train\wl_buttrfly\432013.jpg,wl_buttrfly
..\database\train\wl_buttrfly\432014.jpg,wl_buttrfly
..\database\train\wl_buttrfly\432015.jpg,wl_buttrfly
..\database\train\wl_buttrfly\432016.jpg,wl_buttrfly
..\database\train\wl_buttrfly\432017.jpg,wl_buttrfly
..\database\train\wl_buttrfly\432018.jpg,wl_buttrfly
..\database\train\wl_buttrfly\432019.jpg,wl_buttrfly
..\database\train\wl_buttrfly\52000.jpg,wl_buttrfly
..\database\train\wl_buttrfly\52001.jpg,wl_buttrfly
..\database\train\wl_buttrfly\52002.jpg,wl_buttrfly
..\database\train\wl_buttrfly\52003.jpg,wl_buttrfly
..\database\train\wl_buttrfly\52004.jpg,wl_buttrfly
..\database\train\wl_buttrfly\52005.jpg,wl_buttrfly
..\database\train\wl_buttrfly\52006.jpg,wl_buttrfly
..\database\train\wl_buttrfly\52007.jpg,wl_buttrfly
..\database\train\wl_buttrfly\52008.jpg,wl_buttrfly
..\database\train\wl_buttrfly\52009.jpg,wl_buttrfly
..\database\train\wl_buttrfly\52010.jpg,wl_buttrfly
..\database\train\wl_buttrfly\52011.jpg,wl_buttrfly
..\database\train\wl_buttrfly\52012.jpg,wl_buttrfly
..\database\train\wl_buttrfly\52013.jpg,wl_buttrfly
..\database\train\wl_buttrfly\52014.jpg,wl_buttrfly
..\database\train\wl_buttrfly\52015.jpg,wl_buttrfly
..\database\train\wl_buttrfly\52016.jpg,wl_buttrfly
..\database\train\wl_buttrfly\52017.jpg,wl_buttrfly
..\database\train\wl_buttrfly\52018.jpg,wl_buttrfly
..\database\train\wl_buttrfly\52019.jpg,wl_buttrfly
..\database\train\wl_buttrfly\52020.jpg,wl_buttrfly
..\database\train\wl_buttrfly\52021.jpg,wl_buttrfly
..\database\train\wl_buttrfly\52022.jpg,wl_buttrfly
..\database\train\wl_buttrfly\52023.jpg,wl_buttrfly
..\database\train\wl_buttrfly\52024.jpg,wl_buttrfly
..\database\train\wl_buttrfly\52025.jpg,wl_buttrfly
..\database\train\wl_buttrfly\52026.jpg,wl_buttrfly
..\database\train\wl_buttrfly\52027.jpg,wl_buttrfly
..\database\train\wl_buttrfly\52028.jpg,wl_buttrfly
..\database\train\wl_buttrfly\52029.jpg,wl_buttrfly
..\database\train\wl_buttrfly\52030.jpg,wl_buttrfly
..\database\train\wl_buttrfly\52031.jpg,wl_buttrfly
..\database\train\wl_buttrfly\52032.jpg,wl_buttrfly
..\database\train\wl_buttrfly\52033.jpg,wl_buttrfly
..\database\train\wl_buttrfly\52034.jpg,wl_buttrfly
..\database\train\wl_buttrfly\52035.jpg,wl_buttrfly
..\database\train\wl_buttrfly\52036.jpg,wl_buttrfly
..\database\train\wl_buttrfly\52037.jpg,wl_buttrfly
..\database\train\wl_buttrfly\52038.jpg,wl_buttrfly
..\database\train\wl_buttrfly\52039.jpg,wl_buttrfly
..\database\train\wl_buttrfly\52040.jpg,wl_buttrfly
..\database\train\wl_buttrfly\52041.jpg,wl_buttrfly
..\database\train\wl_buttrfly\52042.jpg,wl_buttrfly
..\database\train\wl_buttrfly\52043.jpg,wl_buttrfly
..\database\train\wl_buttrfly\52044.jpg,wl_buttrfly
..\database\train\wl_buttrfly\52045.jpg,wl_buttrfly
..\database\train\wl_buttrfly\52046.jpg,wl_buttrfly
..\database\train\wl_buttrfly\52047.jpg,wl_buttrfly
..\database\train\wl_buttrfly\52048.jpg,wl_buttrfly
..\database\train\wl_buttrfly\52049.jpg,wl_buttrfly
..\database\train\wl_buttrfly\52050.jpg,wl_buttrfly
..\database\train\wl_buttrfly\52051.jpg,wl_buttrfly
..\database\train\wl_buttrfly\52052.jpg,wl_buttrfly
..\database\train\wl_buttrfly\52053.jpg,wl_buttrfly
..\database\train\wl_buttrfly\52054.jpg,wl_buttrfly
..\database\train\wl_buttrfly\52055.jpg,wl_buttrfly
..\database\train\wl_buttrfly\52056.jpg,wl_buttrfly
..\database\train\wl_buttrfly\52057.jpg,wl_buttrfly
..\database\train\wl_buttrfly\52058.jpg,wl_buttrfly
..\database\train\wl_buttrfly\52059.jpg,wl_buttrfly
..\database\train\wl_buttrfly\52060.jpg,wl_buttrfly
..\database\train\wl_buttrfly\52061.jpg,wl_buttrfly
..\database\train\wl_buttrfly\52062.jpg,wl_buttrfly
..\database\train\wl_buttrfly\52063.jpg,wl_buttrfly
..\database\train\wl_buttrfly\52064.jpg,wl_buttrfly
..\database\train\wl_buttrfly\52065.jpg,wl_buttrfly
..\database\train\wl_buttrfly\52066.jpg,wl_buttrfly
..\database\train\wl_buttrfly\52067.jpg,wl_buttrfly
..\database\train\wl_buttrfly\52068.jpg,wl_buttrfly
..\database\train\wl_buttrfly\52069.jpg,wl_buttrfly
..\database\train\wl_buttrfly\52070.jpg,wl_buttrfly
..\database\train\wl_buttrfly\52071.jpg,wl_buttrfly
..\database\train\wl_buttrfly\52072.jpg,wl_buttrfly
..\database\train\wl_buttrfly\52073.jpg,wl_buttrfly
..\database\train\wl_buttrfly\52074.jpg,wl_buttrfly
..\database\train\wl_buttrfly\52075.jpg,wl_buttrfly
..\database\train\wl_buttrfly\52076.jpg,wl_buttrfly
..\database\train\wl_buttrfly\52077.jpg,wl_buttrfly
..\database\train\wl_buttrfly\52078.jpg,wl_buttrfly
..\database\train\wl_buttrfly\52079.jpg,wl_buttrfly
..\database\train\wl_buttrfly\52080.jpg,wl_buttrfly
..\database\train\wl_buttrfly\52081.jpg,wl_buttrfly
..\database\train\wl_buttrfly\52082.jpg,wl_buttrfly
..\database\train\wl_buttrfly\52083.jpg,wl_buttrfly
..\database\train\wl_buttrfly\52084.jpg,wl_buttrfly
..\database\train\wl_buttrfly\52085.jpg,wl_buttrfly
..\database\train\wl_buttrfly\52086.jpg,wl_buttrfly
..\database\train\wl_buttrfly\52087.jpg,wl_buttrfly
..\database\train\wl_buttrfly\52088.jpg,wl_buttrfly
..\database\train\wl_buttrfly\52089.jpg,wl_buttrfly
..\database\train\wl_buttrfly\52090.jpg,wl_buttrfly
..\database\train\wl_buttrfly\52091.jpg,wl_buttrfly
..\database\train\wl_buttrfly\52092.jpg,wl_buttrfly
..\database\train\wl_buttrfly\52093.jpg,wl_buttrfly
..\database\train\wl_buttrfly\52094.jpg,wl_buttrfly
..\database\train\wl_buttrfly\52095.jpg,wl_buttrfly
..\database\train\wl_buttrfly\52096.jpg,wl_buttrfly
..\database\train\wl_buttrfly\52097.jpg,wl_buttrfly
..\database\train\wl_buttrfly\52098.jpg,wl_buttrfly
..\database\train\wl_buttrfly\52099.jpg,wl_buttrfly
..\database\train\wl_cat\326000.jpg,wl_cat
..\database\train\wl_cat\326001.jpg,wl_cat
..\database\train\wl_cat\326002.jpg,wl_cat
..\database\train\wl_cat\326003.jpg,wl_cat
..\database\train\wl_cat\326004.jpg,wl_cat
..\database\train\wl_cat\326005.jpg,wl_cat
..\database\train\wl_cat\326006.jpg,wl_cat
..\database\train\wl_cat\326007.jpg,wl_cat
..\database\train\wl_cat\326008.jpg,wl_cat
..\database\train\wl_cat\326009.jpg,wl_cat
..\database\train\wl_cat\326010.jpg,wl_cat
..\database\train\wl_cat\326011.jpg,wl_cat
..\database\train\wl_cat\326012.jpg,wl_cat
..\database\train\wl_cat\326013.jpg,wl_cat
..\database\train\wl_cat\326014.jpg,wl_cat
..\database\train\wl_cat\326015.jpg,wl_cat
..\database\train\wl_cat\326016.jpg,wl_cat
..\database\train\wl_cat\326017.jpg,wl_cat
..\database\train\wl_cat\326018.jpg,wl_cat
..\database\train\wl_cat\326019.jpg,wl_cat
..\database\train\wl_cat\326020.jpg,wl_cat
..\database\train\wl_cat\326021.jpg,wl_cat
..\database\train\wl_cat\326022.jpg,wl_cat
..\database\train\wl_cat\326023.jpg,wl_cat
..\database\train\wl_cat\326024.jpg,wl_cat
..\database\train\wl_cat\326025.jpg,wl_cat
..\database\train\wl_cat\326026.jpg,wl_cat
..\database\train\wl_cat\326027.jpg,wl_cat
..\database\train\wl_cat\326028.jpg,wl_cat
..\database\train\wl_cat\326029.jpg,wl_cat
..\database\train\wl_cat\326030.jpg,wl_cat
..\database\train\wl_cat\326031.jpg,wl_cat
..\database\train\wl_cat\326032.jpg,wl_cat
..\database\train\wl_cat\326033.jpg,wl_cat
..\database\train\wl_cat\326034.jpg,wl_cat
..\database\train\wl_cat\326035.jpg,wl_cat
..\database\train\wl_cat\326036.jpg,wl_cat
..\database\train\wl_cat\326037.jpg,wl_cat
..\database\train\wl_cat\326038.jpg,wl_cat
..\database\train\wl_cat\326039.jpg,wl_cat
..\database\train\wl_cat\326040.jpg,wl_cat
..\database\train\wl_cat\326041.jpg,wl_cat
..\database\train\wl_cat\326042.jpg,wl_cat
..\database\train\wl_cat\326043.jpg,wl_cat
..\database\train\wl_cat\326044.jpg,wl_cat
..\database\train\wl_cat\326045.jpg,wl_cat
..\database\train\wl_cat\326046.jpg,wl_cat
..\database\train\wl_cat\326047.jpg,wl_cat
..\database\train\wl_cat\326048.jpg,wl_cat
..\database\train\wl_cat\326049.jpg,wl_cat
..\database\train\wl_cat\326050.jpg,wl_cat
..\database\train\wl_cat\326051.jpg,wl_cat
..\database\train\wl_cat\326052.jpg,wl_cat
..\database\train\wl_cat\326053.jpg,wl_cat
..\database\train\wl_cat\326054.jpg,wl_cat
..\database\train\wl_cat\326055.jpg,wl_cat
..\database\train\wl_cat\326056.jpg,wl_cat
..\database\train\wl_cat\326057.jpg,wl_cat
..\database\train\wl_cat\326058.jpg,wl_cat
..\database\train\wl_cat\326059.jpg,wl_cat
..\database\train\wl_cougr\136000.jpg,wl_cougr
..\database\train\wl_cougr\136001.jpg,wl_cougr
..\database\train\wl_cougr\136002.jpg,wl_cougr
..\database\train\wl_cougr\136003.jpg,wl_cougr
..\database\train\wl_cougr\136004.jpg,wl_cougr
..\database\train\wl_cougr\136005.jpg,wl_cougr
..\database\train\wl_cougr\136006.jpg,wl_cougr
..\database\train\wl_cougr\136007.jpg,wl_cougr
..\database\train\wl_cougr\136008.jpg,wl_cougr
..\database\train\wl_cougr\136009.jpg,wl_cougr
..\database\train\wl_cougr\136010.jpg,wl_cougr
..\database\train\wl_cougr\136011.jpg,wl_cougr
..\database\train\wl_cougr\136012.jpg,wl_cougr
..\database\train\wl_cougr\136013.jpg,wl_cougr
..\database\train\wl_cougr\136014.jpg,wl_cougr
..\database\train\wl_cougr\136015.jpg,wl_cougr
..\database\train\wl_cougr\136016.jpg,wl_cougr
..\database\train\wl_cougr\136017.jpg,wl_cougr
..\database\train\wl_cougr\136018.jpg,wl_cougr
..\database\train\wl_cougr\136019.jpg,wl_cougr
..\database\train\wl_cougr\136020.jpg,wl_cougr
..\database\train\wl_cougr\136021.jpg,wl_cougr
..\database\train\wl_cougr\136022.jpg,wl_cougr
..\database\train\wl_cougr\136023.jpg,wl_cougr
..\database\train\wl_cougr\136024.jpg,wl_cougr
..\database\train\wl_cougr\136025.jpg,wl_cougr
..\database\train\wl_cougr\136026.jpg,wl_cougr
..\database\train\wl_cougr\136027.jpg,wl_cougr
..\database\train\wl_cougr\136028.jpg,wl_cougr
..\database\train\wl_cougr\136029.jpg,wl_cougr
..\database\train\wl_cougr\136030.jpg,wl_cougr
..\database\train\wl_cougr\136031.jpg,wl_cougr
..\database\train\wl_cougr\136032.jpg,wl_cougr
..\database\train\wl_cougr\136033.jpg,wl_cougr
..\database\train\wl_cougr\136034.jpg,wl_cougr
..\database\train\wl_cougr\136035.jpg,wl_cougr
..\database\train\wl_cougr\136036.jpg,wl_cougr
..\database\train\wl_cougr\136037.jpg,wl_cougr
..\database\train\wl_cougr\136038.jpg,wl_cougr
..\database\train\wl_cougr\136039.jpg,wl_cougr
..\database\train\wl_cougr\136040.jpg,wl_cougr
..\database\train\wl_cougr\136041.jpg,wl_cougr
..\database\train\wl_cougr\136042.jpg,wl_cougr
..\database\train\wl_cougr\136043.jpg,wl_cougr
..\database\train\wl_cougr\136044.jpg,wl_cougr
..\database\train\wl_cougr\136045.jpg,wl_cougr
..\database\train\wl_cougr\136046.jpg,wl_cougr
..\database\train\wl_cougr\136047.jpg,wl_cougr
..\database\train\wl_cougr\136048.jpg,wl_cougr
..\database\train\wl_cougr\136049.jpg,wl_cougr
..\database\train\wl_cougr\136050.jpg,wl_cougr
..\database\train\wl_cougr\136051.jpg,wl_cougr
..\database\train\wl_cougr\136052.jpg,wl_cougr
..\database\train\wl_cougr\136053.jpg,wl_cougr
..\database\train\wl_cougr\136054.jpg,wl_cougr
..\database\train\wl_cougr\136055.jpg,wl_cougr
..\database\train\wl_cougr\136056.jpg,wl_cougr
..\database\train\wl_cougr\136057.jpg,wl_cougr
..\database\train\wl_cougr\136058.jpg,wl_cougr
..\database\train\wl_cougr\136059.jpg,wl_cougr
..\database\train\wl_deer\104000.jpg,wl_deer
..\database\train\wl_deer\104001.jpg,wl_deer
..\database\train\wl_deer\104002.jpg,wl_deer
..\database\train\wl_deer\104003.jpg,wl_deer
..\database\train\wl_deer\104004.jpg,wl_deer
..\database\train\wl_deer\104005.jpg,wl_deer
..\database\train\wl_deer\104006.jpg,wl_deer
..\database\train\wl_deer\104007.jpg,wl_deer
..\database\train\wl_deer\104008.jpg,wl_deer
..\database\train\wl_deer\104009.jpg,wl_deer
..\database\train\wl_deer\104010.jpg,wl_deer
..\database\train\wl_deer\104011.jpg,wl_deer
..\database\train\wl_deer\104012.jpg,wl_deer
..\database\train\wl_deer\104013.jpg,wl_deer
..\database\train\wl_deer\104014.jpg,wl_deer
..\database\train\wl_deer\104015.jpg,wl_deer
..\database\train\wl_deer\104016.jpg,wl_deer
..\database\train\wl_deer\104017.jpg,wl_deer
..\database\train\wl_deer\104018.jpg,wl_deer
..\database\train\wl_deer\104019.jpg,wl_deer
..\database\train\wl_deer\77000.jpg,wl_deer
..\database\train\wl_deer\77001.jpg,wl_deer
..\database\train\wl_deer\77002.jpg,wl_deer
..\database\train\wl_deer\77003.jpg,wl_deer
..\database\train\wl_deer\77004.jpg,wl_deer
..\database\train\wl_deer\77005.jpg,wl_deer
..\database\train\wl_deer\77006.jpg,wl_deer
..\database\train\wl_deer\77007.jpg,wl_deer
..\database\train\wl_deer\77008.jpg,wl_deer
..\database\train\wl_deer\77009.jpg,wl_deer
..\database\train\wl_deer\77010.jpg,wl_deer
..\database\train\wl_deer\77011.jpg,wl_deer
..\database\train\wl_deer\77012.jpg,wl_deer
..\database\train\wl_deer\77013.jpg,wl_deer
..\database\train\wl_deer\77014.jpg,wl_deer
..\database\train\wl_deer\77015.jpg,wl_deer
..\database\train\wl_deer\77016.jpg,wl_deer
..\database\train\wl_deer\77017.jpg,wl_deer
..\database\train\wl_deer\77018.jpg,wl_deer
..\database\train\wl_deer\77019.jpg,wl_deer
..\database\train\wl_deer\77020.jpg,wl_deer
..\database\train\wl_deer\77021.jpg,wl_deer
..\database\train\wl_deer\77022.jpg,wl_deer
..\database\train\wl_deer\77023.jpg,wl_deer
..\database\train\wl_deer\77024.jpg,wl_deer
..\database\train\wl_deer\77025.jpg,wl_deer
..\database\train\wl_deer\77026.jpg,wl_deer
..\database\train\wl_deer\77027.jpg,wl_deer
..\database\train\wl_deer\77028.jpg,wl_deer
..\database\train\wl_deer\77029.jpg,wl_deer
..\database\train\wl_deer\77030.jpg,wl_deer
..\database\train\wl_deer\77031.jpg,wl_deer
..\database\train\wl_deer\77032.jpg,wl_deer
..\database\train\wl_deer\77033.jpg,wl_deer
..\database\train\wl_deer\77034.jpg,wl_deer
..\database\train\wl_deer\77035.jpg,wl_deer
..\database\train\wl_deer\77036.jpg,wl_deer
..\database\train\wl_deer\77037.jpg,wl_deer
..\database\train\wl_deer\77038.jpg,wl_deer
..\database\train\wl_deer\77039.jpg,wl_deer
..\database\train\wl_deer\77040.jpg,wl_deer
..\database\train\wl_deer\77041.jpg,wl_deer
..\database\train\wl_deer\77042.jpg,wl_deer
..\database\train\wl_deer\77043.jpg,wl_deer
..\database\train\wl_deer\77044.jpg,wl_deer
..\database\train\wl_deer\77045.jpg,wl_deer
..\database\train\wl_deer\77046.jpg,wl_deer
..\database\train\wl_deer\77047.jpg,wl_deer
..\database\train\wl_deer\77048.jpg,wl_deer
..\database\train\wl_deer\77049.jpg,wl_deer
..\database\train\wl_deer\77050.jpg,wl_deer
..\database\train\wl_deer\77051.jpg,wl_deer
..\database\train\wl_deer\77052.jpg,wl_deer
..\database\train\wl_deer\77053.jpg,wl_deer
..\database\train\wl_deer\77054.jpg,wl_deer
..\database\train\wl_deer\77055.jpg,wl_deer
..\database\train\wl_deer\77056.jpg,wl_deer
..\database\train\wl_deer\77057.jpg,wl_deer
..\database\train\wl_deer\77058.jpg,wl_deer
..\database\train\wl_deer\77059.jpg,wl_deer
..\database\train\wl_deer\77060.jpg,wl_deer
..\database\train\wl_deer\77061.jpg,wl_deer
..\database\train\wl_deer\77062.jpg,wl_deer
..\database\train\wl_deer\77063.jpg,wl_deer
..\database\train\wl_deer\77064.jpg,wl_deer
..\database\train\wl_deer\77065.jpg,wl_deer
..\database\train\wl_deer\77066.jpg,wl_deer
..\database\train\wl_deer\77067.jpg,wl_deer
..\database\train\wl_deer\77068.jpg,wl_deer
..\database\train\wl_deer\77069.jpg,wl_deer
..\database\train\wl_deer\77070.jpg,wl_deer
..\database\train\wl_deer\77071.jpg,wl_deer
..\database\train\wl_deer\77072.jpg,wl_deer
..\database\train\wl_deer\77073.jpg,wl_deer
..\database\train\wl_deer\77074.jpg,wl_deer
..\database\train\wl_deer\77075.jpg,wl_deer
..\database\train\wl_deer\77076.jpg,wl_deer
..\database\train\wl_deer\77077.jpg,wl_deer
..\database\train\wl_deer\77078.jpg,wl_deer
..\database\train\wl_deer\77079.jpg,wl_deer
..\database\train\wl_deer\77080.jpg,wl_deer
..\database\train\wl_deer\77081.jpg,wl_deer
..\database\train\wl_deer\77082.jpg,wl_deer
..\database\train\wl_deer\77083.jpg,wl_deer
..\database\train\wl_deer\77084.jpg,wl_deer
..\database\train\wl_deer\77085.jpg,wl_deer
..\database\train\wl_deer\77086.jpg,wl_deer
..\database\train\wl_deer\77087.jpg,wl_deer
..\database\train\wl_deer\77088.jpg,wl_deer
..\database\train\wl_deer\77089.jpg,wl_deer
..\database\train\wl_deer\77090.jpg,wl_deer
..\database\train\wl_deer\77091.jpg,wl_deer
..\database\train\wl_deer\77092.jpg,wl_deer
..\database\train\wl_deer\77093.jpg,wl_deer
..\database\train\wl_deer\77094.jpg,wl_deer
..\database\train\wl_deer\77095.jpg,wl_deer
..\database\train\wl_deer\77096.jpg,wl_deer
..\database\train\wl_deer\77097.jpg,wl_deer
..\database\train\wl_deer\77098.jpg,wl_deer
..\database\train\wl_deer\77099.jpg,wl_deer
..\database\train\wl_eagle\135000.jpg,wl_eagle
..\database\train\wl_eagle\135001.jpg,wl_eagle
..\database\train\wl_eagle\135002.jpg,wl_eagle
..\database\train\wl_eagle\135003.jpg,wl_eagle
..\database\train\wl_eagle\135004.jpg,wl_eagle
..\database\train\wl_eagle\135005.jpg,wl_eagle
..\database\train\wl_eagle\135006.jpg,wl_eagle
..\database\train\wl_eagle\135007.jpg,wl_eagle
..\database\train\wl_eagle\135008.jpg,wl_eagle
..\database\train\wl_eagle\135009.jpg,wl_eagle
..\database\train\wl_eagle\135010.jpg,wl_eagle
..\database\train\wl_eagle\135011.jpg,wl_eagle
..\database\train\wl_eagle\135012.jpg,wl_eagle
..\database\train\wl_eagle\135013.jpg,wl_eagle
..\database\train\wl_eagle\135014.jpg,wl_eagle
..\database\train\wl_eagle\135015.jpg,wl_eagle
..\database\train\wl_eagle\135016.jpg,wl_eagle
..\database\train\wl_eagle\135017.jpg,wl_eagle
..\database\train\wl_eagle\135018.jpg,wl_eagle
..\database\train\wl_eagle\135019.jpg,wl_eagle
..\database\train\wl_eagle\135020.jpg,wl_eagle
..\database\train\wl_eagle\135021.jpg,wl_eagle
..\database\train\wl_eagle\135022.jpg,wl_eagle
..\database\train\wl_eagle\135023.jpg,wl_eagle
..\database\train\wl_eagle\135024.jpg,wl_eagle
..\database\train\wl_eagle\135025.jpg,wl_eagle
..\database\train\wl_eagle\135026.jpg,wl_eagle
..\database\train\wl_eagle\135027.jpg,wl_eagle
..\database\train\wl_eagle\135028.jpg,wl_eagle
..\database\train\wl_eagle\135029.jpg,wl_eagle
..\database\train\wl_eagle\135030.jpg,wl_eagle
..\database\train\wl_eagle\135031.jpg,wl_eagle
..\database\train\wl_eagle\135032.jpg,wl_eagle
..\database\train\wl_eagle\135033.jpg,wl_eagle
..\database\train\wl_eagle\135034.jpg,wl_eagle
..\database\train\wl_eagle\135035.jpg,wl_eagle
..\database\train\wl_eagle\135036.jpg,wl_eagle
..\database\train\wl_eagle\135037.jpg,wl_eagle
..\database\train\wl_eagle\135038.jpg,wl_eagle
..\database\train\wl_eagle\135039.jpg,wl_eagle
..\database\train\wl_eagle\135040.jpg,wl_eagle
..\database\train\wl_eagle\135041.jpg,wl_eagle
..\database\train\wl_eagle\135042.jpg,wl_eagle
..\database\train\wl_eagle\135043.jpg,wl_eagle
..\database\train\wl_eagle\135044.jpg,wl_eagle
..\database\train\wl_eagle\135045.jpg,wl_eagle
..\database\train\wl_eagle\135046.jpg,wl_eagle
..\database\train\wl_eagle\135047.jpg,wl_eagle
..\database\train\wl_eagle\135048.jpg,wl_eagle
..\database\train\wl_eagle\135049.jpg,wl_eagle
..\database\train\wl_eagle\135050.jpg,wl_eagle
..\database\train\wl_eagle\135051.jpg,wl_eagle
..\database\train\wl_eagle\135052.jpg,wl_eagle
..\database\train\wl_eagle\135053.jpg,wl_eagle
..\database\train\wl_eagle\135054.jpg,wl_eagle
..\database\train\wl_eagle\135055.jpg,wl_eagle
..\database\train\wl_eagle\135056.jpg,wl_eagle
..\database\train\wl_eagle\135057.jpg,wl_eagle
..\database\train\wl_eagle\135058.jpg,wl_eagle
..\database\train\wl_eagle\135059.jpg,wl_eagle